{
  "project_info": {
    "project_number": "269082340958",
    "firebase_url": "https://devfest-bdb24.firebaseio.com",
    "project_id": "devfest-bdb24",
    "storage_bucket": "devfest-bdb24.appspot.com"
  },
  "client": [
    {
      "client_info": {
        "mobilesdk_app_id": "1:269082340958:android:b0dd8846b6e3680c",
        "android_client_info": {
          "package_name": "com.devfestdemo"
        }
      },
      "oauth_client": [
        {
          "client_id": "269082340958-k493msrhu53i4e4rjh7dk9061b44uk2a.apps.googleusercontent.com",
          "client_type": 3
        }
      ],
      "api_key": [
        {
          "current_key": "AIzaSyCAeBAea7u0LDhc7_0hjeqttaJhUfTc5vI"
        }
      ],
      "services": {
        "analytics_service": {
          "status": 1
        },
        "appinvite_service": {
          "status": 1,
          "other_platform_oauth_client": []
        },
        "ads_service": {
          "status": 2
        }
      }
    }
  ],
  "configuration_version": "1"
}